Module2 : Getting your hands dirty
…
Exercise
Hint
Solution

This exercise is about missing data. As you learned, missing observations are ideally encoded as “NA” in the data files.

Open the dataset “compensation.csv” with Excel, and replace a random number with “NA”. Save the changed dataset as “compensation_NA.csv”.

Import this dataset using the read_csv() function. Inspect the dataset and record what happens with the “NA” value you have manually added.

You can inspect a dataset with the following commands :

compensation # shows the first 10 rows of a datast imported with tidyverse (called a "tibble")

# A tibble: 40 × 3
    Root Fruit Grazing 
   <dbl> <dbl> <chr>   
 1  6.22  59.8 Ungrazed
 2  6.49  61.0 Ungrazed
 3  4.92  14.7 Ungrazed
 4  5.13  19.3 Ungrazed
 5  5.42  34.2 Ungrazed
 6  5.36  35.5 Ungrazed
 7  7.61  87.7 Ungrazed
 8  6.35  63.2 Ungrazed
 9  4.97  24.2 Ungrazed
10  6.93  64.3 Ungrazed
# ℹ 30 more rows

print(compensation) # does the same as above

# A tibble: 40 × 3
    Root Fruit Grazing 
   <dbl> <dbl> <chr>   
 1  6.22  59.8 Ungrazed
 2  6.49  61.0 Ungrazed
 3  4.92  14.7 Ungrazed
 4  5.13  19.3 Ungrazed
 5  5.42  34.2 Ungrazed
 6  5.36  35.5 Ungrazed
 7  7.61  87.7 Ungrazed
 8  6.35  63.2 Ungrazed
 9  4.97  24.2 Ungrazed
10  6.93  64.3 Ungrazed
# ℹ 30 more rows

print(compensation, n = 30) # prints out the first 30 rows

# A tibble: 40 × 3
    Root Fruit Grazing 
   <dbl> <dbl> <chr>   
 1  6.22  59.8 Ungrazed
 2  6.49  61.0 Ungrazed
 3  4.92  14.7 Ungrazed
 4  5.13  19.3 Ungrazed
 5  5.42  34.2 Ungrazed
 6  5.36  35.5 Ungrazed
 7  7.61  87.7 Ungrazed
 8  6.35  63.2 Ungrazed
 9  4.97  24.2 Ungrazed
10  6.93  64.3 Ungrazed
11  6.25  52.9 Ungrazed
12  5.45  32.4 Ungrazed
13  6.01  53.6 Ungrazed
14  5.93  54.9 Ungrazed
15  6.26  64.8 Ungrazed
16  7.18  73.2 Ungrazed
17  7.00  80.6 Ungrazed
18  4.43  18.9 Ungrazed
19  7.30  75.5 Ungrazed
20  5.84  46.7 Ungrazed
21 10.3  116.  Grazed  
22  6.96  38.9 Grazed  
23  8.00  60.8 Grazed  
24  9.04  84.4 Grazed  
25  8.91  70.1 Grazed  
26  6.11  15.0 Grazed  
27  7.69  70.7 Grazed  
28  8.99  80.3 Grazed  
29  8.98  82.4 Grazed  
30  9.84 105.  Grazed  
# ℹ 10 more rows
…
Repeat the above exercise with the following variation: this time, create a copy of the “compensation.csv” dataset, open with e.g. Excel and delete two random values and replace them with “NM” (an abbreviation which is sometimes used to indicate Not Measured values). Save the new dataset as “compensation_NM.csv”. Import it, look at it and report what happens at the places where you inserted the missing values.

compensation_NM <- read_csv("compensation_NM.csv")

Rows: 40 Columns: 3
── Column specification ────────────────────────────────────────────────────────
Delimiter: ","
chr (3): Root, Fruit, Grazing

ℹ Use `spec()` to retrieve the full column specification for this data.
ℹ Specify the column types or set `show_col_types = FALSE` to quiet this message.

print(compensation_NM, n = 10)

# A tibble: 40 × 3
   Root  Fruit Grazing 
   <chr> <chr> <chr>   
 1 6.225 59.77 Ungrazed
 2 6.487 60.98 Ungrazed
 3 4.919 NM    Ungrazed
 4 5.13  19.28 Ungrazed
 5 5.417 34.25 NM      
 6 NM    35.53 Ungrazed
 7 7.614 87.73 Ungrazed
 8 6.352 63.21 Ungrazed
 9 4.975 24.25 Ungrazed
10 6.93  64.34 Ungrazed
# ℹ 30 more rows
…
